{
  "/api/*": {
    "target": "http://localhost/fantasyfootball",
    "secure": false,
    "changeOrigin": true,
    "pathRewrite": {"^/api" : ""}
  },
  "/download/*": {
    "target": "http://s.nflcdn.com/static/content/public/static/img/fantasy/transparent/200x200",
    "secure": false,
    "changeOrigin": true,
    "pathRewrite": {"^/download" : ""}
  }
}